…
``` r
df <- df %>% select(-1, -6, -9, -12) %>% rename(district = "District", school = "School", t_takes2012 = "Test-takers: 2012", t_takes2013 = "Test-takers: 2013", part_rate2012 = "Participation Rate (estimate): 2012", part_rate2013 = "Participation Rate (estimate): 2013", perc_mb2012 = "Percent Meeting Benchmark: 2012", perc_mb2013 = "Percent Meeting Benchmark: 2013")
df <- df %>% filter(!(is.na(t_takes2012) | is.na(t_takes2013) | is.na(part_rate2012) | is.na(part_rate2013) | is.na(perc_mb2012) | is.na(perc_mb2013)))
df
```

    ## # A tibble: 187 x 8
    ##    district school t_takes2012 t_takes2013 part_rate2012 part_rate2013
    ##    <chr>    <chr>        <dbl>       <dbl>         <dbl>         <dbl>
    ##  1 Ansonia  Anson~         118         104            67            61
    ##  2 Avon     Avon ~         254         243            90            89
    ##  3 Berlin   Berli~         216         220            81            82
    ##  4 Bethel   Bethe~         200         190            86            82
    ##  5 Bloomfi~ Bloom~         116         130            79            89
    ##  6 Bloomfi~ Big P~          14          30           100           100
    ##  7 Bolton   Bolto~          62          70            85            96
    ##  8 Branford Branf~         196         213            77            84
    ##  9 Bridgep~ Bassi~         105         122            52            60
    ## 10 Bridgep~ Centr~         346         305            78            69
    ## # ... with 177 more rows, and 2 more variables: perc_mb2012 <dbl>,
    ## #   perc_mb2013 <dbl>
…
### 3-1

Find BMRs for each school in 2012 and 2013 from
Connecticut

``` r
df1 <- df %>% select(1:4) %>% rename(`2012` = t_takes2012, `2013` = t_takes2013) %>% gather(3,4,key = "year", value = "t_takes")
df1
```

    ## # A tibble: 374 x 4
    ##    district   school                     year  t_takes
    ##    <chr>      <chr>                      <chr>   <dbl>
    ##  1 Ansonia    Ansonia High School        2012      118
    ##  2 Avon       Avon High School           2012      254
    ##  3 Berlin     Berlin High School         2012      216
    ##  4 Bethel     Bethel High School         2012      200
    ##  5 Bloomfield Bloomfield High School     2012      116
    ##  6 Bloomfield Big Picture High School    2012       14
    ##  7 Bolton     Bolton High School         2012       62
    ##  8 Branford   Branford High School       2012      196
    ##  9 Bridgeport Bassick High School        2012      105
    ## 10 Bridgeport Central Magnet High School 2012      346
    ## # ... with 364 more rows

``` r
df2 <- df %>% select(1,2,5,6) %>% rename(`2012` = part_rate2012, `2013` = part_rate2013) %>% gather(3,4,key = "year", value = "part_rate")
df2
```

    ## # A tibble: 374 x 4
    ##    district   school                     year  part_rate
    ##    <chr>      <chr>                      <chr>     <dbl>
    ##  1 Ansonia    Ansonia High School        2012         67
    ##  2 Avon       Avon High School           2012         90
    ##  3 Berlin     Berlin High School         2012         81
    ##  4 Bethel     Bethel High School         2012         86
    ##  5 Bloomfield Bloomfield High School     2012         79
    ##  6 Bloomfield Big Picture High School    2012        100
    ##  7 Bolton     Bolton High School         2012         85
    ##  8 Branford   Branford High School       2012         77
    ##  9 Bridgeport Bassick High School        2012         52
    ## 10 Bridgeport Central Magnet High School 2012         78
    ## # ... with 364 more rows

``` r
df3 <- df %>% select(1,2,7,8) %>% rename(`2012` = perc_mb2012, `2013` = perc_mb2013) %>% gather(3,4,key = "year", value = "perc_mb")
df3
```

    ## # A tibble: 374 x 4
    ##    district   school                     year  perc_mb
    ##    <chr>      <chr>                      <chr>   <dbl>
    ##  1 Ansonia    Ansonia High School        2012       18
    ##  2 Avon       Avon High School           2012       73
    ##  3 Berlin     Berlin High School         2012       42
    ##  4 Bethel     Bethel High School         2012       51
    ##  5 Bloomfield Bloomfield High School     2012       11
    ##  6 Bloomfield Big Picture High School    2012        7
    ##  7 Bolton     Bolton High School         2012       55
    ##  8 Branford   Branford High School       2012       47
    ##  9 Bridgeport Bassick High School        2012        3
    ## 10 Bridgeport Central Magnet High School 2012       14
    ## # ... with 364 more rows

``` r
df4 <- df1 %>% full_join(df2,by = c("district","school","year")) %>% full_join(df3,by = c("district","school","year"))
df4 <- df4 %>% mutate(bmr = perc_mb*part_rate*1e-4)
df4
```

    ## # A tibble: 374 x 7
    ##    district   school                 year  t_takes part_rate perc_mb    bmr
    ##    <chr>      <chr>                  <chr>   <dbl>     <dbl>   <dbl>  <dbl>
    ##  1 Ansonia    Ansonia High School    2012      118        67      18 0.121 
    ##  2 Avon       Avon High School       2012      254        90      73 0.657 
    ##  3 Berlin     Berlin High School     2012      216        81      42 0.340 
    ##  4 Bethel     Bethel High School     2012      200        86      51 0.439 
    ##  5 Bloomfield Bloomfield High School 2012      116        79      11 0.0869
    ##  6 Bloomfield Big Picture High Scho~ 2012       14       100       7 0.07  
    ##  7 Bolton     Bolton High School     2012       62        85      55 0.468 
    ##  8 Branford   Branford High School   2012      196        77      47 0.362 
    ##  9 Bridgeport Bassick High School    2012      105        52       3 0.0156
    ## 10 Bridgeport Central Magnet High S~ 2012      346        78      14 0.109 
    ## # ... with 364 more rows
…
